Data
…
With these above information, we can use our datagovmy() function to download the incidence data we want:

dengue <- datagovmy("dengue-haemorrhagic-fever", "0e34a58f-909e-4ec2-85ab-8633830be91c", dengue_years)
tb <- datagovmy("tuberculosis", "fbb1dd02-65c4-4383-aa41-344980001a88", tb_years)
hfmd <- datagovmy("hfmd", "e3edfbb1-2dba-4e0e-9c02-d6a213f58221", hfmd_years)

The outputs are in the forms of neat data frames:

dengue

## # A tibble: 6,255 x 4
##    state  year  week incidence
##    <chr> <int> <int>     <int>
##  1 Johor  2010     1         2
##  2 Johor  2010     2         5
##  3 Johor  2010     3         4
##  4 Johor  2010     4         6
##  5 Johor  2010     5         7
##  6 Johor  2010     6         4
##  7 Johor  2010     7         7
##  8 Johor  2010     8         5
##  9 Johor  2010     9         4
## 10 Johor  2010    10         5
## # … with 6,245 more rows

tb

## # A tibble: 3,135 x 4
##    state  year  week incidence
##    <chr> <int> <int>     <int>
##  1 Johor  2014     1        56
##  2 Johor  2014     2        49
##  3 Johor  2014     3        38
##  4 Johor  2014     4        42
##  5 Johor  2014     5        34
##  6 Johor  2014     6        48
##  7 Johor  2014     7        48
##  8 Johor  2014     8        39
##  9 Johor  2014     9        49
## 10 Johor  2014    10        28
## # … with 3,125 more rows

hfmd

## # A tibble: 6,255 x 4
##    state  year  week incidence
##    <chr> <int> <int>     <int>
##  1 Johor  2010     1         4
##  2 Johor  2010     2         1
##  3 Johor  2010     3        12
##  4 Johor  2010     4         9
##  5 Johor  2010     5        11
##  6 Johor  2010     6        11
##  7 Johor  2010     7         9
##  8 Johor  2010     8        18
##  9 Johor  2010     9         7
## 10 Johor  2010    10        14
## # … with 6,245 more rows
…
## Parsed with column specification:
## cols(
##   location = col_character(),
##   station = col_integer(),
##   longitude = col_double(),
##   latitude = col_double(),
##   elevation = col_integer(),
##   from = col_integer()
## )

which gives:

stations

## # A tibble: 28 x 6
##    location           station longitude latitude elevation  from
##    <chr>                <int>     <dbl>    <dbl>     <int> <int>
##  1 Alor Star           486030      100.     6.2          5  1959
##  2 Bintulu             964410      113.     3.2          2  1955
##  3 Butterworth         486020      100.     5.46         4  1962
##  4 Cameron Highlands   486320      101.     4.46      1545  2015
##  5 Ipoh                486250      101.     4.56        40  1959
##  6 Johore Bharu/Senai  486790      104.     1.63        37  1999
##  7 Kota Bharu          486150      102.     6.16         5  1954
##  8 Kota Kinabalu       964710      116.     5.93         3  1955
##  9 Kuantan             486570      103.     3.78        18  1954
## 10 Kuching             964130      110.     1.48        27  1955
## # … with 18 more rows

Now, everything is ready to be downloaded! (It’ll take about 2 hours).

climate <- stations %$%
  purrr::map2(station, sapply(from, max, min_year), download_data2) %>%
  setNames(stations$station) %>%
  dplyr::bind_rows(.id = "station") %>% 
  dplyr::mutate_if(is.character, as.integer)

which gives:

climate

## # A tibble: 73,392 x 16
##    station day           ta    tx    tn   slp     h    pp    vv     v    vm
##      <int> <date>     <dbl> <dbl> <dbl> <dbl> <int> <dbl> <dbl> <dbl> <dbl>
##  1  486030 2015-10-01    NA    NA    NA    NA    NA    NA    NA    NA    NA
##  2  486030 2015-10-02    NA    NA    NA    NA    NA    NA    NA    NA    NA
##  3  486030 2015-10-03    NA    NA    NA    NA    NA    NA    NA    NA    NA
##  4  486030 2015-10-04    NA    NA    NA    NA    NA    NA    NA    NA    NA
##  5  486030 2015-10-05    NA    NA    NA    NA    NA    NA    NA    NA    NA
##  6  486030 2015-10-06    NA    NA    NA    NA    NA    NA    NA    NA    NA
##  7  486030 2015-10-07    NA    NA    NA    NA    NA    NA    NA    NA    NA
##  8  486030 2015-10-08    NA    NA    NA    NA    NA    NA    NA    NA    NA
##  9  486030 2015-10-09    NA    NA    NA    NA    NA    NA    NA    NA    NA
## 10  486030 2015-10-10    NA    NA    NA    NA    NA    NA    NA    NA    NA
## # … with 73,382 more rows, and 5 more variables: vg <dbl>, ra <lgl>,
## #   sn <lgl>, ts <lgl>, fg <lgl>

If you don’t want to spend the 2 hours downloading the data from TuTiempo.net, you can downlaod them in CSV form, directly from here:

climate <- readr::read_csv("https://raw.githubusercontent.com/choisy/DMo2019/master/data/climate.csv")

Which gives the same thing:

climate

## # A tibble: 73,392 x 16
##    station day           ta    tx    tn   slp     h    pp    vv     v    vm
##      <int> <date>     <dbl> <dbl> <dbl> <dbl> <int> <dbl> <dbl> <dbl> <dbl>
##  1  486030 2015-10-01    NA    NA    NA    NA    NA    NA    NA    NA    NA
##  2  486030 2015-10-02    NA    NA    NA    NA    NA    NA    NA    NA    NA
##  3  486030 2015-10-03    NA    NA    NA    NA    NA    NA    NA    NA    NA
##  4  486030 2015-10-04    NA    NA    NA    NA    NA    NA    NA    NA    NA
##  5  486030 2015-10-05    NA    NA    NA    NA    NA    NA    NA    NA    NA
##  6  486030 2015-10-06    NA    NA    NA    NA    NA    NA    NA    NA    NA
##  7  486030 2015-10-07    NA    NA    NA    NA    NA    NA    NA    NA    NA
##  8  486030 2015-10-08    NA    NA    NA    NA    NA    NA    NA    NA    NA
##  9  486030 2015-10-09    NA    NA    NA    NA    NA    NA    NA    NA    NA
## 10  486030 2015-10-10    NA    NA    NA    NA    NA    NA    NA    NA    NA
## # … with 73,382 more rows, and 5 more variables: vg <dbl>, ra <lgl>,
## #   sn <lgl>, ts <lgl>, fg <lgl>
